Bus data 
1 2 40   0     20  10    1 
2 0 0    0     45  15    0
3 0 0    0     40  5     0
4 0 0    0     60  10    0
5 3 400  0     0   0     1.06
Branch data  
1    2   0.06  0.18 0
1    3   0.06  0.18 0
1    4   0.04  0.12 0
1    5   0.02  0.06 0
2    3   0.01  0.03 0
2    5   0.08  0.24 0
3    4   0.08  0.24 0
